xof 0303txt 0032
Mesh {
 4;
 -128.00000;0.000000;-128.00000;,
 -128.00000;0.000000;128.00000;,
 128.00000;0.000000;-128.00000;,
 128.00000;0.000000;128.00000;;
 2;
 3;0,1,2;,
 3;2,1,3;;

 MeshNormals {
  4;
  0.000000;1.000000;0.000000;,
  0.000000;1.000000;0.000000;,
  0.000000;1.000000;0.000000;,
  0.000000;1.000000;0.000000;;
  2;
 3;0,1,2;,
 3;1,2,3;;
 }

 MeshTextureCoords {
  4;
  0.000000;0.000000;,
  0.000000;1.000000;,
  1.000000;0.000000;,
  1.000000;1.000000;;
 }

 MeshMaterialList {
  1;
  2;
  0,
  0;

  Material {
   1.000000;1.000000;1.000000;1.000000;;
   0.000000;
   0.000000;0.000000;0.000000;;
   0.000000;0.000000;0.000000;;

   TextureFilename {
    "wood2.jpg";
   }
  }
 }

 VertexDuplicationIndices {
  4;
  4;
  0,
  1,
  2,
  3;
 }
}