xof 0303txt 0032
//
// DirectX file: C:\Documents and Settings\Laurent Noel\Desktop\Uclan\Home Documents\Development\CO3301\Messaging\Media\Stars.x
//
// Converted by the PolyTrans geometry converter from Okino Computer Graphics, Inc.
// Date/time of export: 11/13/2006 17:18:21
//
// Bounding box of geometry = (-1,-1,-1) to (1,1,1).

Header {
	1; // Major version
	0; // Minor version
	1; // Flags
}

Material xof_default {
	0.400000;0.400000;0.400000;1.000000;;
	32.000000;
	0.700000;0.700000;0.700000;;
	0.000000;0.000000;0.000000;;
}

Material Clouds {
	1.0;1.0;1.0;1.000000;;
	0.000000;
	0.000000;0.000000;0.000000;;
	0.000000;0.000000;0.000000;;
	TextureFilename {
		"Clouds.jpg";
	}
}

// Top-most frame encompassing the 'World'
Frame Frame_World {
	FrameTransformMatrix {
		1.000000, 0.0, 0.0, 0.0, 
		0.0, 1.000000, 0.0, 0.0, 
		0.0, 0.0, 1.000000, 0.0, 
		0.0, 0.0, 0.0, 1.000000;;
	}

Frame Frame_pSphere2 {
	FrameTransformMatrix {
		1.000000, 0.0, 0.0, 0.0, 
		0.0, 1.000000, 0.0, 0.0, 
		0.0, 0.0, 1.000000, 0.0, 
		0.0, 0.0, 0.0, 1.000000;;
	}

// Original object name = "pSphere2"
Mesh pSphere2 {
	65;		// 65 vertices
	0.270598;-0.923880;0.270598;,
	0.270598;-0.923880;0.270598;,
	0.000000;-0.923880;0.382683;,
	-0.270598;-0.923880;0.270598;,
	-0.382683;-0.923880;0.000000;,
	-0.270598;-0.923880;-0.270598;,
	0.000000;-0.923880;-0.382683;,
	0.270598;-0.923880;-0.270598;,
	0.382683;-0.923880;0.000000;,
	0.500000;-0.707107;0.500000;,
	0.500000;-0.707107;0.500000;,
	0.000000;-0.707107;0.707107;,
	-0.500000;-0.707107;0.500000;,
	-0.707107;-0.707107;0.000000;,
	-0.500000;-0.707107;-0.500000;,
	0.000000;-0.707107;-0.707107;,
	0.500000;-0.707107;-0.500000;,
	0.707107;-0.707107;0.000000;,
	0.653281;-0.382683;0.653281;,
	0.653281;-0.382683;0.653281;,
	0.000000;-0.382683;0.923879;,
	-0.653281;-0.382683;0.653281;,
	-0.923879;-0.382683;0.000000;,
	-0.653281;-0.382683;-0.653281;,
	0.000000;-0.382683;-0.923879;,
	0.653281;-0.382683;-0.653281;,
	0.923880;-0.382683;0.000000;,
	0.707107;0.000000;0.707107;,
	0.707107;0.000000;0.707107;,
	0.000000;0.000000;1.000000;,
	-0.707107;0.000000;0.707107;,
	-1.000000;0.000000;0.000000;,
	-0.707107;0.000000;-0.707107;,
	0.000000;0.000000;-1.000000;,
	0.707107;0.000000;-0.707107;,
	1.000000;0.000000;0.000000;,
	0.653281;0.382683;0.653281;,
	0.653281;0.382683;0.653281;,
	0.000000;0.382683;0.923879;,
	-0.653281;0.382683;0.653281;,
	-0.923879;0.382683;0.000000;,
	-0.653281;0.382683;-0.653281;,
	0.000000;0.382683;-0.923879;,
	0.653281;0.382683;-0.653281;,
	0.923880;0.382683;0.000000;,
	0.500000;0.707107;0.500000;,
	0.500000;0.707107;0.500000;,
	0.000000;0.707107;0.707107;,
	-0.500000;0.707107;0.500000;,
	-0.707107;0.707107;0.000000;,
	-0.500000;0.707107;-0.500000;,
	0.000000;0.707107;-0.707107;,
	0.500000;0.707107;-0.500000;,
	0.707107;0.707107;0.000000;,
	0.270598;0.923880;0.270598;,
	0.270598;0.923880;0.270598;,
	0.000000;0.923880;0.382683;,
	-0.270598;0.923880;0.270598;,
	-0.382683;0.923880;0.000000;,
	-0.270598;0.923880;-0.270598;,
	0.000000;0.923880;-0.382683;,
	0.270598;0.923880;-0.270598;,
	0.382683;0.923880;0.000000;,
	0.000000;-1.000000;0.000000;,
	0.000000;1.000000;0.000000;;

	64;		// 64 faces
	4;2,11,10,1;,
	4;3,12,11,2;,
	4;4,13,12,3;,
	4;5,14,13,4;,
	4;6,15,14,5;,
	4;7,16,15,6;,
	4;8,17,16,7;,
	4;0,9,17,8;,
	4;11,20,19,10;,
	4;12,21,20,11;,
	4;13,22,21,12;,
	4;14,23,22,13;,
	4;15,24,23,14;,
	4;16,25,24,15;,
	4;17,26,25,16;,
	4;9,18,26,17;,
	4;20,29,28,19;,
	4;21,30,29,20;,
	4;22,31,30,21;,
	4;23,32,31,22;,
	4;24,33,32,23;,
	4;25,34,33,24;,
	4;26,35,34,25;,
	4;18,27,35,26;,
	4;29,38,37,28;,
	4;30,39,38,29;,
	4;31,40,39,30;,
	4;32,41,40,31;,
	4;33,42,41,32;,
	4;34,43,42,33;,
	4;35,44,43,34;,
	4;27,36,44,35;,
	4;38,47,46,37;,
	4;39,48,47,38;,
	4;40,49,48,39;,
	4;41,50,49,40;,
	4;42,51,50,41;,
	4;43,52,51,42;,
	4;44,53,52,43;,
	4;36,45,53,44;,
	4;47,56,55,46;,
	4;48,57,56,47;,
	4;49,58,57,48;,
	4;50,59,58,49;,
	4;51,60,59,50;,
	4;52,61,60,51;,
	4;53,62,61,52;,
	4;45,54,62,53;,
	3;1,63,2;,
	3;2,63,3;,
	3;3,63,4;,
	3;4,63,5;,
	3;5,63,6;,
	3;6,63,7;,
	3;7,63,8;,
	3;8,63,0;,
	3;56,64,55;,
	3;57,64,56;,
	3;58,64,57;,
	3;59,64,58;,
	3;60,64,59;,
	3;61,64,60;,
	3;62,64,61;,
	3;54,64,62;;

	MeshMaterialList {
		1;1;0;;
		{Clouds}
	}

	MeshNormals {
		58; // 58 normals
		-1.000000;0.000000;0.000000;,
		-0.923104;-0.384551;0.000000;,
		-0.923104;0.384551;0.000000;,
		-0.707107;0.000000;0.707107;,
		-0.707107;0.000000;-0.707107;,
		-0.704977;0.709230;0.000000;,
		-0.704977;-0.709230;0.000000;,
		-0.652733;0.384551;0.652733;,
		-0.652733;-0.384551;-0.652733;,
		-0.652733;0.384551;-0.652733;,
		-0.652733;-0.384551;0.652733;,
		-0.498494;-0.709230;-0.498494;,
		-0.498494;0.709230;-0.498494;,
		-0.498494;-0.709230;0.498494;,
		-0.498494;0.709230;0.498494;,
		-0.380611;-0.924735;0.000000;,
		-0.380611;0.924735;0.000000;,
		-0.269133;-0.924735;-0.269133;,
		-0.269133;0.924735;-0.269133;,
		-0.269132;-0.924735;0.269133;,
		-0.269132;0.924735;0.269133;,
		0.000000;-1.000000;0.000000;,
		0.000000;-0.924735;0.380611;,
		0.000000;-0.924735;-0.380611;,
		0.000000;-0.709230;0.704977;,
		0.000000;-0.709230;-0.704977;,
		0.000000;-0.384551;0.923104;,
		0.000000;-0.384551;-0.923104;,
		0.000000;0.000000;1.000000;,
		0.000000;0.000000;-1.000000;,
		0.000000;0.384551;-0.923104;,
		0.000000;0.384551;0.923104;,
		0.000000;0.709230;-0.704977;,
		0.000000;0.709230;0.704977;,
		0.000000;0.924735;0.380611;,
		0.000000;0.924735;-0.380611;,
		0.000000;1.000000;0.000000;,
		0.269133;-0.924735;0.269133;,
		0.269133;-0.924735;-0.269133;,
		0.269133;0.924735;0.269133;,
		0.269133;0.924735;-0.269133;,
		0.380611;-0.924735;0.000000;,
		0.380611;0.924735;0.000000;,
		0.498494;-0.709230;0.498494;,
		0.498494;-0.709230;-0.498494;,
		0.498494;0.709230;0.498494;,
		0.498494;0.709230;-0.498494;,
		0.652733;0.384551;-0.652733;,
		0.652733;-0.384551;-0.652733;,
		0.652733;-0.384551;0.652733;,
		0.652733;0.384551;0.652733;,
		0.704977;-0.709230;0.000000;,
		0.704977;0.709230;0.000000;,
		0.707107;0.000000;0.707107;,
		0.707107;0.000000;-0.707107;,
		0.923104;-0.384551;0.000000;,
		0.923104;0.384551;0.000000;,
		1.000000;0.000000;0.000000;;

		64;		// 64 faces
		4;35,32,12,18;,
		4;40,46,32,35;,
		4;42,52,46,40;,
		4;39,45,52,42;,
		4;34,33,45,39;,
		4;20,14,33,34;,
		4;16,5,14,20;,
		4;18,12,5,16;,
		4;32,30,9,12;,
		4;46,47,30,32;,
		4;52,56,47,46;,
		4;45,50,56,52;,
		4;33,31,50,45;,
		4;14,7,31,33;,
		4;5,2,7,14;,
		4;12,9,2,5;,
		4;30,29,4,9;,
		4;47,54,29,30;,
		4;56,57,54,47;,
		4;50,53,57,56;,
		4;31,28,53,50;,
		4;7,3,28,31;,
		4;2,0,3,7;,
		4;9,4,0,2;,
		4;29,27,8,4;,
		4;54,48,27,29;,
		4;57,55,48,54;,
		4;53,49,55,57;,
		4;28,26,49,53;,
		4;3,10,26,28;,
		4;0,1,10,3;,
		4;4,8,1,0;,
		4;27,25,11,8;,
		4;48,44,25,27;,
		4;55,51,44,48;,
		4;49,43,51,55;,
		4;26,24,43,49;,
		4;10,13,24,26;,
		4;1,6,13,10;,
		4;8,11,6,1;,
		4;25,23,17,11;,
		4;44,38,23,25;,
		4;51,41,38,44;,
		4;43,37,41,51;,
		4;24,22,37,43;,
		4;13,19,22,24;,
		4;6,15,19,13;,
		4;11,17,15,6;,
		3;18,36,35;,
		3;35,36,40;,
		3;40,36,42;,
		3;42,36,39;,
		3;39,36,34;,
		3;34,36,20;,
		3;20,36,16;,
		3;16,36,18;,
		3;23,21,17;,
		3;38,21,23;,
		3;41,21,38;,
		3;37,21,41;,
		3;22,21,37;,
		3;19,21,22;,
		3;15,21,19;,
		3;17,21,15;;
	}  // End of Normals

	MeshTextureCoords {
		65; // 65 texture coords
		1.000000;0.875000;,
		0.000000;0.875000;,
		0.125000;0.875000;,
		0.250000;0.875000;,
		0.375000;0.875000;,
		0.500000;0.875000;,
		0.625000;0.875000;,
		0.750000;0.875000;,
		0.875000;0.875000;,
		1.000000;0.750000;,
		0.000000;0.750000;,
		0.125000;0.750000;,
		0.250000;0.750000;,
		0.375000;0.750000;,
		0.500000;0.750000;,
		0.625000;0.750000;,
		0.750000;0.750000;,
		0.875000;0.750000;,
		1.000000;0.625000;,
		0.000000;0.625000;,
		0.125000;0.625000;,
		0.250000;0.625000;,
		0.375000;0.625000;,
		0.500000;0.625000;,
		0.625000;0.625000;,
		0.750000;0.625000;,
		0.875000;0.625000;,
		1.000000;0.500000;,
		0.000000;0.500000;,
		0.125000;0.500000;,
		0.250000;0.500000;,
		0.375000;0.500000;,
		0.500000;0.500000;,
		0.625000;0.500000;,
		0.750000;0.500000;,
		0.875000;0.500000;,
		1.000000;0.375000;,
		0.000000;0.375000;,
		0.125000;0.375000;,
		0.250000;0.375000;,
		0.375000;0.375000;,
		0.500000;0.375000;,
		0.625000;0.375000;,
		0.750000;0.375000;,
		0.875000;0.375000;,
		1.000000;0.250000;,
		0.000000;0.250000;,
		0.125000;0.250000;,
		0.250000;0.250000;,
		0.375000;0.250000;,
		0.500000;0.250000;,
		0.625000;0.250000;,
		0.750000;0.250000;,
		0.875000;0.250000;,
		1.000000;0.125000;,
		0.000000;0.125000;,
		0.125000;0.125000;,
		0.250000;0.125000;,
		0.375000;0.125000;,
		0.500000;0.125000;,
		0.625000;0.125000;,
		0.750000;0.125000;,
		0.875000;0.125000;,
		0.500000;1.000000;,
		0.500000;0.000000;;
	}  // End of texture coords
} // End of Mesh
} // End of frame for 'pSphere2'
} // End of "World" frame
